…
## Value

Shifts database supplemented with selected temperature and/or
precipitation baseline values within the study area or species-specific
study area.

## Examples

``` r
get_shifts() |> add_baselines()
#> # A tibble: 31,761 × 15
#>    id         article_id poly_id method_id eco   type  param sp_name_publication
#>    <chr>      <chr>      <chr>   <chr>     <chr> <chr> <chr> <chr>              
#>  1 A002_P1_L… A002       P1      M01       Ter   LAT   LE    Ambloplites_rupest…
#>  2 A002_P1_L… A002       P1      M01       Ter   LAT   LE    Ameiurus_nebulosus 
#>  3 A002_P1_L… A002       P1      M01       Ter   LAT   LE    Chrosomus_eos      
#>  4 A002_P1_L… A002       P1      M01       Ter   LAT   LE    Lepomis_gibbosus   
#>  5 A002_P1_L… A002       P1      M01       Ter   LAT   LE    Lepomis_macrochirus
#>  6 A002_P1_L… A002       P1      M01       Ter   LAT   LE    Luxilus_cornutus   
#>  7 A002_P1_L… A002       P1      M01       Ter   LAT   LE    Micropterus_dolomi…
#>  8 A002_P1_L… A002       P1      M01       Ter   LAT   LE    Micropterus_salmoi…
#>  9 A002_P1_L… A002       P1      M01       Ter   LAT   LE    Notemigonus_crysol…
#> 10 A002_P1_L… A002       P1      M01       Ter   LAT   LE    Notropis_atherinoi…
#> # ℹ 31,751 more rows
#> # ℹ 7 more variables: sp_name_checked <chr>, subsp <chr>, calc_rate <dbl>,
#> #   calc_unit <chr>, direction <chr>, baseline_temp_mean <dbl>,
#> #   baseline_res <chr>
…
