…
- type:

  Gradient over which to extract range shifts. Options are `ELE` for
  elevational shifts, or `LAT` for latitudinal shifts.

## Value

Minimal data frame of calculated and author-reported species range shift
values.

## Examples

``` r
get_shifts()
#> # A tibble: 31,761 × 13
#>    id         article_id poly_id method_id eco   type  param sp_name_publication
#>    <chr>      <chr>      <chr>   <chr>     <chr> <chr> <chr> <chr>              
#>  1 A001_P1_E… A001       P1      M01       Ter   ELE   O     Aegithalos_caudatus
#>  2 A001_P1_E… A001       P1      M01       Ter   ELE   O     Certhia_familiaris 
#>  3 A001_P1_E… A001       P1      M01       Ter   ELE   O     Dendrocopos_major  
#>  4 A001_P1_E… A001       P1      M01       Ter   ELE   O     Dryocopus_martius  
#>  5 A001_P1_E… A001       P1      M01       Ter   ELE   O     Erithacus_rubecula 
#>  6 A001_P1_E… A001       P1      M01       Ter   ELE   O     Fringilla_coelebs  
#>  7 A001_P1_E… A001       P1      M01       Ter   ELE   O     Garrulus_glandarius
#>  8 A001_P1_E… A001       P1      M01       Ter   ELE   O     Nucifraga_caryocat…
#>  9 A001_P1_E… A001       P1      M01       Ter   ELE   O     Parus_ater         
#> 10 A001_P1_E… A001       P1      M01       Ter   ELE   O     Parus_caeruleus    
#> # ℹ 31,751 more rows
#> # ℹ 5 more variables: sp_name_checked <chr>, subsp <chr>, calc_rate <dbl>,
#> #   calc_unit <chr>, direction <chr>
get_shifts(group = "Birds", continent = "Asia")
#> # A tibble: 80 × 13
#>    id         article_id poly_id method_id eco   type  param sp_name_publication
#>    <chr>      <chr>      <chr>   <chr>     <chr> <chr> <chr> <chr>              
#>  1 A048_P1_E… A048       P1      M1        Ter   ELE   LE    Accipiter_trivirga…
#>  2 A048_P1_E… A048       P1      M11       Ter   ELE   LE    Arachnothera_longi…
#>  3 A048_P1_E… A048       P1      M12       Ter   ELE   LE    Pellorneum_pyrroge…
#>  4 A048_P1_E… A048       P1      M13       Ter   ELE   LE    Glaucidium_brodiei 
#>  5 A048_P1_E… A048       P1      M14       Ter   ELE   LE    Eurylaimus_ochroma…
#>  6 A048_P1_E… A048       P1      M14       Ter   ELE   LE    Micropternus_brach…
#>  7 A048_P1_E… A048       P1      M14       Ter   ELE   LE    Oriolus_cruentus   
#>  8 A048_P1_E… A048       P1      M14       Ter   ELE   LE    Rhipidura_albicoll…
#>  9 A048_P1_E… A048       P1      M15       Ter   ELE   LE    Geokichla_citrina  
#> 10 A048_P1_E… A048       P1      M2        Ter   ELE   LE    Phylloscopus_trivi…
#> # ℹ 70 more rows
#> # ℹ 5 more variables: sp_name_checked <chr>, subsp <chr>, calc_rate <dbl>,
#> #   calc_unit <chr>, direction <chr>
get_shifts(continent = c("North America","South America"), type = "ELE")
#> # A tibble: 7,475 × 13
#>    id         article_id poly_id method_id eco   type  param sp_name_publication
#>    <chr>      <chr>      <chr>   <chr>     <chr> <chr> <chr> <chr>              
#>  1 A011_P1_E… A011       P1      M01       Ter   ELE   O     Abies_concolor     
#>  2 A011_P1_E… A011       P1      M01       Ter   ELE   O     Abies_magnifica    
#>  3 A011_P1_E… A011       P1      M01       Ter   ELE   O     Adenostoma_fascicu…
#>  4 A011_P1_E… A011       P1      M01       Ter   ELE   O     Aesculus_californi…
#>  5 A011_P1_E… A011       P1      M01       Ter   ELE   O     Amelanchier_alnifo…
#>  6 A011_P1_E… A011       P1      M01       Ter   ELE   O     Arbutus_menziesii  
#>  7 A011_P1_E… A011       P1      M01       Ter   ELE   O     Arctostaphylos_gla…
#>  8 A011_P1_E… A011       P1      M01       Ter   ELE   O     Arctostaphylos_nev…
#>  9 A011_P1_E… A011       P1      M01       Ter   ELE   O     Arctostaphylos_vis…
#> 10 A011_P1_E… A011       P1      M01       Ter   ELE   O     Artemisia_tridenta…
#> # ℹ 7,465 more rows
#> # ℹ 5 more variables: sp_name_checked <chr>, subsp <chr>, calc_rate <dbl>,
#> #   calc_unit <chr>, direction <chr>
```
